2 Explore Data – Groundwater and Stream Temperature
…
Code

pasta <- read_csv("C:/Users/jbaldock/OneDrive - DOI/Documents/USGS/EcoDrought/EcoDrought Working/EcoDrought-Analysis/Covariates/pasta_derived_parameters_daily.csv") %>%
  mutate(Month = month(date)) %>%
  rename(CalendarYear = year) %>%
  filter(Month %in% c(7:9)) %>%
  group_by(site_name, CalendarYear) %>%
  summarize(meanRatio = mean(meanRatio, na.rm = TRUE),
            phaseLag = mean(phaseLag, na.rm = TRUE),
            amplitudeRatio = mean(amplitudeRatio, na.rm = TRUE)) %>%
  ungroup()
pasta

# A tibble: 432 × 5
   site_name      CalendarYear meanRatio phaseLag amplitudeRatio
   <chr>                 <dbl>     <dbl>    <dbl>          <dbl>
 1 Avery Brook            2020     0.886     1.48          0.230
 2 Avery Brook            2021     0.904     2.89          0.290
 3 Avery Brook            2022     0.876     1.68          0.208
 4 Avery Brook            2023     0.903     3.21          0.332
 5 Avery Brook            2024     0.855     2.26          0.243
 6 BigCreekLower          2017     1.29      1.81          0.396
 7 BigCreekLower          2018     0.826     2.43          0.313
 8 BigCreekLower          2019     1.06      2.45          0.383
 9 BigCreekLower          2020     0.868     1.85          0.428
10 BigCreekMiddle         2018     0.933     1.20          0.338
# ℹ 422 more rows
…
